<?xml version="1.0" encoding="UTF-8" standalone="no"?>
<svg
   xmlns:dc="http://purl.org/dc/elements/1.1/"
   xmlns:cc="http://creativecommons.org/ns#"
   xmlns:rdf="http://www.w3.org/1999/02/22-rdf-syntax-ns#"
   xmlns:svg="http://www.w3.org/2000/svg"
   xmlns="http://www.w3.org/2000/svg"
   xmlns:sodipodi="http://sodipodi.sourceforge.net/DTD/sodipodi-0.dtd"
   xmlns:inkscape="http://www.inkscape.org/namespaces/inkscape"
   enable-background="new 0 0 128 128"
   id="Слой_1"
   version="1.1"
   viewBox="0 0 128 128"
   xml:space="preserve"
   inkscape:version="0.91 r13725"
   sodipodi:docname="pencil.svg"><metadata
     id="metadata51"><rdf:RDF><cc:Work
         rdf:about=""><dc:format>image/svg+xml</dc:format><dc:type
           rdf:resource="http://purl.org/dc/dcmitype/StillImage" /></cc:Work></rdf:RDF></metadata><defs
     id="defs49" /><sodipodi:namedview
     pagecolor="#ffffff"
     bordercolor="#666666"
     borderopacity="1"
     objecttolerance="10"
     gridtolerance="10"
     guidetolerance="10"
     inkscape:pageopacity="0"
     inkscape:pageshadow="2"
     inkscape:window-width="1366"
     inkscape:window-height="682"
     id="namedview47"
     showgrid="false"
     inkscape:zoom="1.84375"
     inkscape:cx="61.830508"
     inkscape:cy="64"
     inkscape:window-x="0"
     inkscape:window-y="33"
     inkscape:window-maximized="1"
     inkscape:current-layer="Слой_1" /><g
     id="g3"
     transform="matrix(0.70710678,0.70710678,-0.70710678,0.70710678,64.014645,-26.545023)"><g
       id="g5"><path
         d="M 75.3,104.5 64,124 52.8,104.5 52.8,15.2 C 52.8,9 57.8,4 64,4 l 0,0 c 6.2,0 11.2,5 11.2,11.2 l 0,89.3 z"
         id="path7"
         inkscape:connector-curvature="0"
         style="fill:#e3725d" /></g><g
       id="g9"><polygon
         points="52.7,104.5 64,124 75.2,104.5 "
         id="polygon11"
         style="fill:#ecd652" /></g><g
       id="g13"><path
         d="m 75.2,105.5 -22.4,0 c -0.6,0 -1,-0.4 -1,-1 0,-0.6 0.4,-1 1,-1 l 22.5,0 c 0.6,0 1,0.4 1,1 0,0.6 -0.5,1 -1.1,1 z"
         id="path15"
         inkscape:connector-curvature="0"
         style="fill:#2d2e2d" /></g><g
       id="g17"><polygon
         points="59.5,118 64,124 68.5,118 "
         id="polygon19"
         style="fill:#2d2e2d" /></g><g
       id="g21"><path
         d="M 64,4 C 57.8,4 52.8,9 52.8,15.2 l 22.5,0 C 75.2,9 70.2,4 64,4 Z"
         id="path23"
         inkscape:connector-curvature="0"
         style="fill:#e7e8e3" /></g><g
       id="g25"><rect
         height="15"
         width="22.5"
         x="52.700001"
         y="15.2"
         id="rect27"
         style="fill:#ccd1cd" /></g><g
       id="g29"
       style="opacity:0.1"><g
         id="g31"><path
           d="m 64,4 c -1.3,0 -2.6,0.2 -3.8,0.7 4.4,1.5 7.5,5.7 7.5,10.6 l 0,89.2 -3.7,19.5 0,0 11.3,-19.5 0,-89.3 C 75.2,9 70.2,4 64,4 Z"
           id="path33"
           inkscape:connector-curvature="0"
           style="fill:#040606" /></g></g><g
       id="g35"><path
         d="m 75.2,16.2 -22.4,0 c -0.6,0 -1,-0.4 -1,-1 0,-0.6 0.4,-1 1,-1 l 22.5,0 c 0.6,0 1,0.4 1,1 0,0.6 -0.5,1 -1.1,1 z"
         id="path37"
         inkscape:connector-curvature="0"
         style="fill:#2d2e2d" /></g><g
       id="g39"><path
         d="m 75.2,31.2 -22.4,0 c -0.6,0 -1,-0.4 -1,-1 0,-0.6 0.4,-1 1,-1 l 22.5,0 c 0.6,0 1,0.4 1,1 0,0.6 -0.5,1 -1.1,1 z"
         id="path41"
         inkscape:connector-curvature="0"
         style="fill:#2d2e2d" /></g><g
       id="g43"><path
         d="m 64,125 c -0.4,0 -0.7,-0.2 -0.9,-0.5 L 51.9,105 c -0.1,-0.2 -0.1,-0.3 -0.1,-0.5 l 0,-89.3 C 51.8,8.5 57.2,3 64,3 70.8,3 76.2,8.5 76.2,15.2 l 0,89.2 c 0,0.2 0,0.3 -0.1,0.5 L 64.9,124.4 C 64.7,124.8 64.4,125 64,125 Z M 53.8,104.2 64,122 l 10.2,-17.8 0,-89 C 74.2,9.6 69.7,5 64,5 58.3,5 53.8,9.6 53.8,15.2 l 0,89 z"
         id="path45"
         inkscape:connector-curvature="0"
         style="fill:#2d2e2d" /></g></g></svg>