<?xml version="1.0" encoding="UTF-8" standalone="no"?>
<svg
   xmlns:dc="http://purl.org/dc/elements/1.1/"
   xmlns:cc="http://creativecommons.org/ns#"
   xmlns:rdf="http://www.w3.org/1999/02/22-rdf-syntax-ns#"
   xmlns:svg="http://www.w3.org/2000/svg"
   xmlns="http://www.w3.org/2000/svg"
   xmlns:xlink="http://www.w3.org/1999/xlink"
   xmlns:sodipodi="http://sodipodi.sourceforge.net/DTD/sodipodi-0.dtd"
   xmlns:inkscape="http://www.inkscape.org/namespaces/inkscape"
   viewBox="0 0 32 32"
   id="svg2"
   version="1.1"
   inkscape:version="0.91 r13725"
   sodipodi:docname="SRS_flat_top.svg"
   width="32"
   height="32">
  <metadata
     id="metadata665">
    <rdf:RDF>
      <cc:Work
         rdf:about="">
        <dc:format>image/svg+xml</dc:format>
        <dc:type
           rdf:resource="http://purl.org/dc/dcmitype/StillImage" />
        <dc:title>Window function and its Fourier transform – SRS flat top</dc:title>
      </cc:Work>
    </rdf:RDF>
  </metadata>
  <defs
     id="defs663">
    <defs
       id="defs11">
      <circle
         r="0.5"
         id="gpDot"
         cx="0"
         cy="0"
         style="stroke-width:0.5" />
      <path
         d="M -1,0 1,0 M 0,-1 0,1"
         id="gpPt0"
         inkscape:connector-curvature="0"
         style="stroke:currentColor;stroke-width:0.29899999" />
      <path
         d="M -1,-1 1,1 M 1,-1 -1,1"
         id="gpPt1"
         inkscape:connector-curvature="0"
         style="stroke:currentColor;stroke-width:0.29899999" />
      <path
         d="M -1,0 1,0 M 0,-1 0,1 m -1,-2 2,2 m -2,0 2,-2"
         id="gpPt2"
         inkscape:connector-curvature="0"
         style="stroke:currentColor;stroke-width:0.29899999" />
      <rect
         height="2"
         width="2"
         y="-1"
         x="-1"
         id="gpPt3"
         style="stroke:currentColor;stroke-width:0.29899999" />
      <rect
         height="2"
         width="2"
         y="-1"
         x="-1"
         id="gpPt4"
         style="fill:currentColor;stroke:currentColor;stroke-width:0.29899999" />
      <circle
         r="1"
         cy="0"
         cx="0"
         id="gpPt5"
         style="stroke:currentColor;stroke-width:0.29899999" />
      <use
         id="gpPt6"
         xlink:href="#gpPt5"
         style="fill:currentColor;stroke:none"
         x="0"
         y="0"
         width="100%"
         height="100%" />
      <path
         d="m 0,-1.33 -1.33,2 2.66,0 z"
         id="gpPt7"
         inkscape:connector-curvature="0"
         style="stroke:currentColor;stroke-width:0.29899999" />
      <use
         id="gpPt8"
         xlink:href="#gpPt7"
         style="fill:currentColor;stroke:none"
         x="0"
         y="0"
         width="100%"
         height="100%" />
      <use
         transform="scale(-1,-1)"
         id="gpPt9"
         xlink:href="#gpPt7"
         style="stroke:currentColor"
         x="0"
         y="0"
         width="100%"
         height="100%" />
      <use
         id="gpPt10"
         xlink:href="#gpPt9"
         style="fill:currentColor;stroke:none"
         x="0"
         y="0"
         width="100%"
         height="100%" />
      <use
         transform="matrix(0.70710678,0.70710678,-0.70710678,0.70710678,0,0)"
         id="gpPt11"
         xlink:href="#gpPt3"
         style="stroke:currentColor"
         x="0"
         y="0"
         width="100%"
         height="100%" />
      <use
         id="gpPt12"
         xlink:href="#gpPt11"
         style="fill:currentColor;stroke:none"
         x="0"
         y="0"
         width="100%"
         height="100%" />
    </defs>
  </defs>
  <sodipodi:namedview
     pagecolor="#ffffff"
     bordercolor="#666666"
     borderopacity="1"
     objecttolerance="10"
     gridtolerance="10"
     guidetolerance="10"
     inkscape:pageopacity="0"
     inkscape:pageshadow="2"
     inkscape:window-width="1366"
     inkscape:window-height="682"
     id="namedview661"
     showgrid="false"
     inkscape:zoom="11.43156"
     inkscape:cx="5.505224"
     inkscape:cy="10.975953"
     inkscape:window-x="0"
     inkscape:window-y="33"
     inkscape:window-maximized="1"
     inkscape:current-layer="svg2" />
  <title
     id="title4">Window function and its Fourier transform – SRS flat top</title>
  <desc
     id="desc6">Produced by GNUPLOT 4.6 patchlevel 0 </desc>
  <text
     style="color:#000000;font-size:11.56333828px;font-family:sans-serif;text-anchor:middle;fill:#000000;stroke:none;stroke-width:1;stroke-linecap:butt;stroke-linejoin:miter"
     id="text153"
     x="78.534332"
     y="0.93899965" />
  <text
     style="color:#000000;font-size:11.56333828px;font-family:sans-serif;text-anchor:middle;fill:#000000;stroke:none;stroke-width:1;stroke-linecap:butt;stroke-linejoin:miter"
     id="text165"
     x="104.84093"
     y="0.93899965" />
  <text
     style="color:#000000;font-size:11.56333828px;font-family:sans-serif;text-anchor:middle;fill:#000000;stroke:none;stroke-width:1;stroke-linecap:butt;stroke-linejoin:miter"
     id="text177"
     x="131.24388"
     y="0.93899965" />
  <text
     style="color:#000000;font-size:11.56333828px;font-family:sans-serif;text-anchor:middle;fill:#000000;stroke:none;stroke-width:1;stroke-linecap:butt;stroke-linejoin:miter"
     id="text189"
     x="157.55048"
     y="0.93899965" />
  <text
     style="color:#000000;font-size:11.56333828px;font-family:sans-serif;text-anchor:middle;fill:#000000;stroke:none;stroke-width:1;stroke-linecap:butt;stroke-linejoin:miter"
     id="text201"
     x="183.95343"
     y="0.93899965" />
  <text
     style="color:#000000;font-size:11.56333828px;font-family:sans-serif;text-anchor:middle;fill:#000000;stroke:none;stroke-width:1;stroke-linecap:butt;stroke-linejoin:miter"
     id="text213"
     x="210.26003"
     y="0.93899965" />
  <text
     style="color:#000000;font-size:11.56333828px;font-family:sans-serif;text-anchor:middle;fill:#000000;stroke:none;stroke-width:1;stroke-linecap:butt;stroke-linejoin:miter"
     id="text225"
     x="236.66299"
     y="0.93899965" />
  <polygon
     points="62.2,205.2 62.6,205.3 63.1,205.3 63.5,205.3 63.9,205.3 64.4,205.4 64.8,205.4 65.2,205.4 65.6,205.5 66.1,205.5 66.5,205.6 66.9,205.6 67.3,205.6 67.8,205.7 68.2,205.7 68.6,205.8 69.1,205.9 69.5,205.9 69.9,206 70.3,206.1 70.8,206.1 71.2,206.2 71.6,206.3 72,206.4 72.5,206.4 72.9,206.5 73.3,206.6 73.8,206.7 74.2,206.8 74.6,206.9 75,207 75.5,207.1 75.9,207.2 76.3,207.4 76.7,207.5 77.2,207.6 77.6,207.7 78,207.9 78.5,208 78.9,208.1 79.3,208.3 79.7,208.4 80.2,208.6 80.6,208.7 81,208.9 81.5,209.1 81.9,209.2 82.3,209.4 82.7,209.6 83.2,209.7 83.6,209.9 84,210.1 84.4,210.3 84.9,210.5 85.3,210.7 85.7,210.9 86.2,211 86.6,211.2 87,211.4 87.4,211.6 87.9,211.8 88.3,212 88.7,212.2 89.1,212.4 89.6,212.6 90,212.8 90.4,213 90.9,213.2 91.3,213.4 91.7,213.6 92.1,213.8 92.6,214 93,214.1 93.4,214.3 93.8,214.5 94.3,214.7 94.7,214.8 95.1,215 95.6,215.1 96,215.3 96.4,215.4 96.8,215.6 97.3,215.7 97.7,215.8 98.1,215.9 98.5,216 99,216.1 99.4,216.2 99.8,216.2 100.3,216.3 100.7,216.3 101.1,216.4 101.5,216.4 102,216.4 102.4,216.4 102.8,216.3 103.2,216.3 103.7,216.2 104.1,216.1 104.5,216 105,215.9 105.4,215.8 105.8,215.6 106.2,215.5 106.7,215.3 107.1,215.1 107.5,214.8 107.9,214.6 108.4,214.3 108.8,214 109.2,213.6 109.7,213.3 110.1,212.9 110.5,212.5 110.9,212 111.4,211.6 111.8,211.1 112.2,210.6 112.6,210 113.1,209.5 113.5,208.9 113.9,208.2 114.4,207.6 114.8,206.9 115.2,206.2 115.6,205.4 116.1,204.6 116.5,203.8 116.9,203 117.3,202.1 117.8,201.2 118.2,200.2 118.6,199.3 119.1,198.3 119.5,197.2 119.9,196.2 120.3,195.1 120.8,193.9 121.2,192.8 121.6,191.6 122,190.4 122.5,189.1 122.9,187.8 123.3,186.5 123.8,185.1 124.2,183.7 124.6,182.3 125,180.9 125.5,179.4 125.9,177.9 126.3,176.4 126.7,174.8 127.2,173.2 127.6,171.6 128,170 128.5,168.3 128.9,166.6 129.3,164.9 129.7,163.2 130.2,161.4 130.6,159.6 131,157.8 131.4,156 131.9,154.1 132.3,152.3 132.7,150.4 133.2,148.5 133.6,146.5 134,144.6 134.4,142.7 134.9,140.7 135.3,138.7 135.7,136.8 136.2,134.8 136.6,132.8 137,130.8 137.4,128.8 137.9,126.8 138.3,124.7 138.7,122.7 139.1,120.7 139.6,118.7 140,116.7 140.4,114.7 140.9,112.6 141.3,110.6 141.7,108.7 142.1,106.7 142.6,104.7 143,102.7 143.4,100.8 143.8,98.9 144.3,96.9 144.7,95 145.1,93.2 145.6,91.3 146,89.5 146.4,87.6 146.8,85.8 147.3,84.1 147.7,82.3 148.1,80.6 148.5,78.9 149,77.3 149.4,75.7 149.8,74.1 150.3,72.5 150.7,71 151.1,69.5 151.5,68.1 152,66.7 152.4,65.4 152.8,64 153.2,62.8 153.7,61.5 154.1,60.3 154.5,59.2 155,58.1 155.4,57.1 155.8,56.1 156.2,55.1 156.7,54.2 157.1,53.4 157.5,52.6 157.9,51.8 158.4,51.1 158.8,50.5 159.2,49.9 159.7,49.4 160.1,48.9 160.5,48.5 160.9,48.1 161.4,47.8 161.8,47.6 162.2,47.4 162.6,47.2 163.1,47.1 163.5,47.1 163.9,47.1 164.4,47.2 164.8,47.4 165.2,47.6 165.6,47.8 166.1,48.1 166.5,48.5 166.9,48.9 167.3,49.4 167.8,49.9 168.2,50.5 168.6,51.1 169.1,51.8 169.5,52.6 169.9,53.4 170.3,54.2 170.8,55.1 171.2,56.1 171.6,57.1 172,58.1 172.5,59.2 172.9,60.3 173.3,61.5 173.8,62.8 174.2,64 174.6,65.4 175,66.7 175.5,68.1 175.9,69.5 176.3,71 176.7,72.5 177.2,74.1 177.6,75.7 178,77.3 178.5,78.9 178.9,80.6 179.3,82.3 179.7,84.1 180.2,85.8 180.6,87.6 181,89.5 181.4,91.3 181.9,93.2 182.3,95 182.7,96.9 183.2,98.9 183.6,100.8 184,102.7 184.4,104.7 184.9,106.7 185.3,108.7 185.7,110.6 186.1,112.6 186.6,114.7 187,116.7 187.4,118.7 187.9,120.7 188.3,122.7 188.7,124.7 189.1,126.8 189.6,128.8 190,130.8 190.4,132.8 190.9,134.8 191.3,136.8 191.7,138.7 192.1,140.7 192.6,142.7 193,144.6 193.4,146.5 193.8,148.5 194.3,150.4 194.7,152.3 195.1,154.1 195.6,156 196,157.8 196.4,159.6 196.8,161.4 197.3,163.2 197.7,164.9 198.1,166.6 198.5,168.3 199,170 199.4,171.6 199.8,173.2 200.3,174.8 200.7,176.4 201.1,177.9 201.5,179.4 202,180.9 202.4,182.3 202.8,183.7 203.2,185.1 203.7,186.5 204.1,187.8 204.5,189.1 205,190.4 205.4,191.6 205.8,192.8 206.2,193.9 206.7,195.1 207.1,196.2 207.5,197.2 207.9,198.3 208.4,199.3 208.8,200.2 209.2,201.2 209.7,202.1 210.1,203 210.5,203.8 210.9,204.6 211.4,205.4 211.8,206.2 212.2,206.9 212.6,207.6 213.1,208.2 213.5,208.9 213.9,209.5 214.4,210 214.8,210.6 215.2,211.1 215.6,211.6 216.1,212 216.5,212.5 216.9,212.9 217.3,213.3 217.8,213.6 218.2,214 218.6,214.3 219.1,214.6 219.5,214.8 219.9,215.1 220.3,215.3 220.8,215.5 221.2,215.6 221.6,215.8 222,215.9 222.5,216 222.9,216.1 223.3,216.2 223.8,216.3 224.2,216.3 224.6,216.4 225,216.4 225.5,216.4 225.9,216.4 226.3,216.3 226.7,216.3 227.2,216.2 227.6,216.2 228,216.1 228.5,216 228.9,215.9 229.3,215.8 229.7,215.7 230.2,215.6 230.6,215.4 231,215.3 231.4,215.1 231.9,215 232.3,214.8 232.7,214.7 233.2,214.5 233.6,214.3 234,214.1 234.4,214 234.9,213.8 235.3,213.6 235.7,213.4 236.1,213.2 236.6,213 237,212.8 237.4,212.6 237.9,212.4 238.3,212.2 238.7,212 239.1,211.8 239.6,211.6 240,211.4 240.4,211.2 240.8,211 241.3,210.9 241.7,210.7 242.1,210.5 242.6,210.3 243,210.1 243.4,209.9 243.8,209.7 244.3,209.6 244.7,209.4 245.1,209.2 245.6,209.1 246,208.9 246.4,208.7 246.8,208.6 247.3,208.4 247.7,208.3 248.1,208.1 248.5,208 249,207.9 249.4,207.7 249.8,207.6 250.3,207.5 250.7,207.4 251.1,207.2 251.5,207.1 252,207 252.4,206.9 252.8,206.8 253.2,206.7 253.7,206.6 254.1,206.5 254.5,206.4 255,206.4 255.4,206.3 255.8,206.2 256.2,206.1 256.7,206.1 257.1,206 257.5,205.9 257.9,205.9 258.4,205.8 258.8,205.7 259.2,205.7 259.7,205.6 260.1,205.6 260.5,205.6 260.9,205.5 261.4,205.5 261.8,205.4 262.2,205.4 262.6,205.4 263.1,205.3 263.5,205.3 263.9,205.3 264.4,205.3 264.8,205.2 265.2,205.2 265.6,205.2 266.1,205.2 266.5,205.1 266.9,205.1 267.3,205.1 267.8,205.1 268.2,205.1 268.6,205.1 269.1,205.1 269.5,205.1 269.9,205.1 270.3,205.1 270.8,205 271.2,205 271.6,205 272,205 272.5,205 272.9,205 272.9,205 272.5,205 272,205 271.6,205 271.2,205 270.8,205 270.3,205 269.9,205 269.5,205 269.1,205 268.6,205 268.2,205 267.8,205 267.3,205 266.9,205 266.5,205 266.1,205 265.6,205 265.2,205 264.8,205 264.4,205 263.9,205 263.5,205 263.1,205 262.6,205 262.2,205 261.8,205 261.4,205 260.9,205 260.5,205 260.1,205 259.7,205 259.2,205 258.8,205 258.4,205 257.9,205 257.5,205 257.1,205 256.7,205 256.2,205 255.8,205 255.4,205 255,205 254.5,205 254.1,205 253.7,205 253.2,205 252.8,205 252.4,205 252,205 251.5,205 251.1,205 250.7,205 250.3,205 249.8,205 249.4,205 249,205 248.5,205 248.1,205 247.7,205 247.3,205 246.8,205 246.4,205 246,205 245.6,205 245.1,205 244.7,205 244.3,205 243.8,205 243.4,205 243,205 242.6,205 242.1,205 241.7,205 241.3,205 240.8,205 240.4,205 240,205 239.6,205 239.1,205 238.7,205 238.3,205 237.9,205 237.4,205 237,205 236.6,205 236.1,205 235.7,205 235.3,205 234.9,205 234.4,205 234,205 233.6,205 233.2,205 232.7,205 232.3,205 231.9,205 231.4,205 231,205 230.6,205 230.2,205 229.7,205 229.3,205 228.9,205 228.5,205 228,205 227.6,205 227.2,205 226.7,205 226.3,205 225.9,205 225.5,205 225,205 224.6,205 224.2,205 223.8,205 223.3,205 222.9,205 222.5,205 222,205 221.6,205 221.2,205 220.8,205 220.3,205 219.9,205 219.5,205 219.1,205 218.6,205 218.2,205 217.8,205 217.3,205 216.9,205 216.5,205 216.1,205 215.6,205 215.2,205 214.8,205 214.4,205 213.9,205 213.5,205 213.1,205 212.6,205 212.2,205 211.8,205 211.4,205 210.9,205 210.5,205 210.1,205 209.7,205 209.2,205 208.8,205 208.4,205 207.9,205 207.5,205 207.1,205 206.7,205 206.2,205 205.8,205 205.4,205 205,205 204.5,205 204.1,205 203.7,205 203.2,205 202.8,205 202.4,205 202,205 201.5,205 201.1,205 200.7,205 200.3,205 199.8,205 199.4,205 199,205 198.5,205 198.1,205 197.7,205 197.3,205 196.8,205 196.4,205 196,205 195.6,205 195.1,205 194.7,205 194.3,205 193.8,205 193.4,205 193,205 192.6,205 192.1,205 191.7,205 191.3,205 190.9,205 190.4,205 190,205 189.6,205 189.1,205 188.7,205 188.3,205 187.9,205 187.4,205 187,205 186.6,205 186.1,205 185.7,205 185.3,205 184.9,205 184.4,205 184,205 183.6,205 183.2,205 182.7,205 182.3,205 181.9,205 181.4,205 181,205 180.6,205 180.2,205 179.7,205 179.3,205 178.9,205 178.5,205 178,205 177.6,205 177.2,205 176.7,205 176.3,205 175.9,205 175.5,205 175,205 174.6,205 174.2,205 173.8,205 173.3,205 172.9,205 172.5,205 172,205 171.6,205 171.2,205 170.8,205 170.3,205 169.9,205 169.5,205 169.1,205 168.6,205 168.2,205 167.8,205 167.3,205 166.9,205 166.5,205 166.1,205 165.6,205 165.2,205 164.8,205 164.4,205 163.9,205 163.5,205 163.1,205 162.6,205 162.2,205 161.8,205 161.4,205 160.9,205 160.5,205 160.1,205 159.7,205 159.2,205 158.8,205 158.4,205 157.9,205 157.5,205 157.1,205 156.7,205 156.2,205 155.8,205 155.4,205 155,205 154.5,205 154.1,205 153.7,205 153.2,205 152.8,205 152.4,205 152,205 151.5,205 151.1,205 150.7,205 150.3,205 149.8,205 149.4,205 149,205 148.5,205 148.1,205 147.7,205 147.3,205 146.8,205 146.4,205 146,205 145.6,205 145.1,205 144.7,205 144.3,205 143.8,205 143.4,205 143,205 142.6,205 142.1,205 141.7,205 141.3,205 140.9,205 140.4,205 140,205 139.6,205 139.1,205 138.7,205 138.3,205 137.9,205 137.4,205 137,205 136.6,205 136.2,205 135.7,205 135.3,205 134.9,205 134.4,205 134,205 133.6,205 133.2,205 132.7,205 132.3,205 131.9,205 131.4,205 131,205 130.6,205 130.2,205 129.7,205 129.3,205 128.9,205 128.5,205 128,205 127.6,205 127.2,205 126.7,205 126.3,205 125.9,205 125.5,205 125,205 124.6,205 124.2,205 123.8,205 123.3,205 122.9,205 122.5,205 122,205 121.6,205 121.2,205 120.8,205 120.3,205 119.9,205 119.5,205 119.1,205 118.6,205 118.2,205 117.8,205 117.3,205 116.9,205 116.5,205 116.1,205 115.6,205 115.2,205 114.8,205 114.4,205 113.9,205 113.5,205 113.1,205 112.6,205 112.2,205 111.8,205 111.4,205 110.9,205 110.5,205 110.1,205 109.7,205 109.2,205 108.8,205 108.4,205 107.9,205 107.5,205 107.1,205 106.7,205 106.2,205 105.8,205 105.4,205 105,205 104.5,205 104.1,205 103.7,205 103.2,205 102.8,205 102.4,205 102,205 101.5,205 101.1,205 100.7,205 100.3,205 99.8,205 99.4,205 99,205 98.5,205 98.1,205 97.7,205 97.3,205 96.8,205 96.4,205 96,205 95.6,205 95.1,205 94.7,205 94.3,205 93.8,205 93.4,205 93,205 92.6,205 92.1,205 91.7,205 91.3,205 90.9,205 90.4,205 90,205 89.6,205 89.1,205 88.7,205 88.3,205 87.9,205 87.4,205 87,205 86.6,205 86.2,205 85.7,205 85.3,205 84.9,205 84.4,205 84,205 83.6,205 83.2,205 82.7,205 82.3,205 81.9,205 81.5,205 81,205 80.6,205 80.2,205 79.7,205 79.3,205 78.9,205 78.5,205 78,205 77.6,205 77.2,205 76.7,205 76.3,205 75.9,205 75.5,205 75,205 74.6,205 74.2,205 73.8,205 73.3,205 72.9,205 72.5,205 72,205 71.6,205 71.2,205 70.8,205 70.3,205 69.9,205 69.5,205 69.1,205 68.6,205 68.2,205 67.8,205 67.3,205 66.9,205 66.5,205 66.1,205 65.6,205 65.2,205 64.8,205 64.4,205 63.9,205 63.5,205 63.1,205 62.6,205 62.2,205 61.8,205 61.4,205 60.9,205 60.5,205 60.1,205 59.7,205 59.2,205 58.8,205 58.4,205 57.9,205 57.5,205 57.1,205 56.7,205 56.2,205 55.8,205 55.4,205 55,205 54.5,205 54.1,205 54.1,205 54.1,205 54.1,205 54.5,205 55,205 55.4,205 55.8,205 56.2,205 56.7,205.1 57.1,205.1 57.5,205.1 57.9,205.1 58.4,205.1 58.8,205.1 59.2,205.1 59.7,205.1 60.1,205.1 60.5,205.1 60.9,205.2 61.4,205.2 61.8,205.2 "
     id="polygon266"
     style="color:#ff0000;fill:#006699;stroke:none;stroke-width:1;stroke-linecap:butt;stroke-linejoin:miter;shape-rendering:crispEdges"
     transform="matrix(0.14093039,0,0,0.14093039,-7.0421188,-2.5675789)" />
  <path
     style="color:#ff0000;fill:none;stroke:#006699;stroke-width:0.1409304;stroke-linecap:butt;stroke-linejoin:miter"
     inkscape:connector-curvature="0"
     id="path268"
     d="m 0.58224095,26.324741 0.0563713,0 0.0704689,0 0.0563713,0 0.0563713,0 0.0563713,0 0.0704689,0.01407 0.0563712,0 0.056371,0 0.056371,0 0.070469,0 0.056371,0 0.056371,0 0.070469,0 0.056371,0 0.056371,0 0.056371,0.01407 0.070469,0 0.056371,0 0.056371,0 0.056371,0.01407 0.070469,0 0.056371,0 0.056371,0 0.070469,0.01407 0.056371,0 0.056371,0 0.056371,0.01407 0.070469,0 0.056371,0.01407 0.056371,0 0.056371,0 0.070469,0.01407 0.056371,0 0.056371,0.01407 0.070469,0.01407 0.056371,0 0.056371,0.01407 0.056371,0.01407 0.070469,0 0.056371,0.01407 0.056371,0.01407 0.056371,0.01407 0.070469,0 0.056371,0.01407 0.056371,0.01407 0.070469,0.01407 0.056371,0.01407 0.056371,0.01407 0.056371,0.01407 0.070469,0.01407 0.056371,0.01407 0.056371,0.02814 0.056371,0.01407 0.070469,0.01407 0.056371,0.01407 0.056371,0.02814 0.070469,0.01407 0.056371,0.01407 0.056371,0.02814 0.056371,0.01407 0.070469,0.02814 0.056371,0.01407 0.056371,0.02814 0.070469,0.02814 0.056371,0.01407 0.056371,0.02814 0.056371,0.02823 0.070469,0.01407 0.056371,0.02814 0.056371,0.02814 0.056371,0.02823 0.070469,0.02823 0.056371,0.02814 0.056371,0.02814 0.070469,0.01407 0.056371,0.02814 0.056371,0.02814 0.056371,0.02814 0.070469,0.02814 0.056371,0.02823 0.056371,0.02814 0.056371,0.02814 0.070469,0.02823 0.056371,0.02814 0.056371,0.02814 0.070469,0.02814 0.056371,0.02814 0.056371,0.02814 0.056371,0.02823 0.070469,0.02814 0.056371,0.01407 0.056371,0.02814 0.056371,0.02814 0.070469,0.02823 0.056371,0.01407 0.056371,0.02823 0.070469,0.01407 0.056371,0.02823 0.056371,0.01407 0.056371,0.02814 0.070469,0.01407 0.056371,0.01407 0.056371,0.01407 0.056371,0.01407 0.070469,0.01407 0.056371,0.01407 0.056371,0 0.070469,0.01407 0.056371,0 0.056371,0.01407 0.056371,0 0.070469,0 0.056371,0 0.056371,-0.01407 0.056371,0 0.070469,-0.01407 0.056371,-0.01407 0.056371,-0.01407 0.070469,-0.01407 0.056371,-0.01407 0.056371,-0.02814 0.056371,-0.01407 0.070469,-0.02814 0.056371,-0.02823 0.056371,-0.0423 0.056371,-0.02814 0.070469,-0.0423 0.056371,-0.0423 0.056371,-0.05637 0.070469,-0.0423 0.056371,-0.05637 0.056371,-0.05637 0.056371,-0.07044 0.070469,-0.05637 0.056371,-0.07044 0.056371,-0.07044 0.056371,-0.08451 0.070469,-0.07044 0.056371,-0.0846 0.056371,-0.09865 0.070469,-0.0846 0.056371,-0.09865 0.056371,-0.09865 0.056371,-0.112742 0.070469,-0.112743 0.056371,-0.112743 0.056371,-0.112752 0.056371,-0.12683 0.070469,-0.12684 0.056371,-0.140929 0.056371,-0.12684 0.070469,-0.140928 0.056371,-0.155026 0.056371,-0.140928 0.056371,-0.155026 0.070469,-0.169114 0.056371,-0.155026 0.05637,-0.169113 0.05637,-0.169124 0.07047,-0.183202 0.05637,-0.183211 0.05637,-0.183212 0.07047,-0.197299 0.05637,-0.197309 0.05637,-0.1973 0.05637,-0.197299 0.07047,-0.211397 0.05637,-0.211397 0.05637,-0.211397 0.05637,-0.225485 0.07047,-0.225486 0.05637,-0.225494 0.05637,-0.225485 0.07047,-0.239583 0.05637,-0.239583 0.05637,-0.239583 0.05637,-0.239582 0.07047,-0.253671 0.05637,-0.25368 0.05637,-0.253671 0.05637,-0.253671 0.07047,-0.267768 0.05637,-0.253681 0.05637,-0.267768 0.07047,-0.267768 0.05637,-0.281857 0.05637,-0.267768 0.05637,-0.267768 0.07047,-0.281857 0.05637,-0.281866 0.05637,-0.267768 0.07047,-0.281857 0.05637,-0.281866 0.05637,-0.281856 0.05637,-0.281866 0.07047,-0.281856 0.05637,-0.295954 0.05637,-0.281866 0.05637,-0.281857 0.07047,-0.281856 0.05637,-0.281866 0.05637,-0.281856 0.07047,-0.295954 0.05637,-0.281866 0.05637,-0.267769 0.05637,-0.281856 0.07047,-0.281866 0.05637,-0.281857 0.05637,-0.267768 0.05637,-0.267768 0.07047,-0.281857 0.05637,-0.267768 0.05637,-0.25368 0.07047,-0.267769 0.05637,-0.253671 0.05637,-0.267768 0.05637,-0.2536707 0.07047,-0.2395827 0.05637,-0.2536804 0.05637,-0.2395827 0.05637,-0.2395828 0.07047,-0.225485 0.05637,-0.2254851 0.05637,-0.2254948 0.07047,-0.2254851 0.05637,-0.2113971 0.05637,-0.2113971 0.05637,-0.1972994 0.07047,-0.1972995 0.05637,-0.1832115 0.05637,-0.1972994 0.05637,-0.1691235 0.07047,-0.1832114 0.05637,-0.1691139 0.05637,-0.1550258 0.07047,-0.1550162 0.05637,-0.1409378 0.05637,-0.1409282 0.05637,-0.1409282 0.07047,-0.1268401 0.05637,-0.1127426 0.05637,-0.1127425 0.05637,-0.1127426 0.07047,-0.098654 0.05637,-0.084605 0.05637,-0.084509 0.07047,-0.07044 0.05637,-0.07044 0.05637,-0.056371 0.05637,-0.056371 0.07047,-0.042303 0.05637,-0.028137 0.05637,-0.028137 0.05637,-0.028137 0.07047,-0.014069 0.05637,0 0.05637,0 0.07047,0.014069 0.05637,0.028137 0.05637,0.028137 0.05637,0.028137 0.07047,0.042303 0.05637,0.056371 0.05637,0.056371 0.05637,0.07044 0.07047,0.07044 0.05637,0.084509 0.05637,0.084605 0.07047,0.098654 0.05637,0.1127426 0.05637,0.1127425 0.05637,0.1127426 0.07047,0.1268401 0.05637,0.1409282 0.05637,0.1409282 0.05637,0.1409378 0.07047,0.1550162 0.05637,0.1550258 0.05637,0.1691139 0.07047,0.1832114 0.05637,0.1691235 0.05637,0.1972994 0.05637,0.1832115 0.07047,0.1972995 0.05637,0.1972994 0.05637,0.2113971 0.05637,0.2113971 0.07047,0.2254851 0.05637,0.2254948 0.05637,0.2254851 0.07047,0.225485 0.05637,0.2395828 0.05637,0.2395827 0.05637,0.2536804 0.07047,0.2395827 0.05637,0.2536707 0.05637,0.267768 0.05637,0.253671 0.07047,0.267769 0.05637,0.25368 0.05637,0.267768 0.07047,0.281857 0.05637,0.267768 0.05637,0.267768 0.05637,0.281857 0.07047,0.281866 0.05637,0.281856 0.05637,0.267769 0.05637,0.281866 0.07047,0.295954 0.05637,0.281856 0.05637,0.281866 0.07047,0.281856 0.05637,0.281857 0.05637,0.281866 0.05637,0.295954 0.07047,0.281856 0.05637,0.281866 0.05637,0.281856 0.07047,0.281866 0.05637,0.281857 0.05637,0.267768 0.05637,0.281866 0.07047,0.281857 0.05637,0.267768 0.05637,0.267768 0.05637,0.281857 0.07047,0.267768 0.05637,0.267768 0.05637,0.253681 0.07047,0.267768 0.05637,0.253671 0.05637,0.253671 0.05637,0.25368 0.07047,0.253671 0.05637,0.239582 0.05637,0.239583 0.05637,0.239583 0.07047,0.239583 0.05637,0.225485 0.05637,0.225494 0.07047,0.225486 0.05637,0.225485 0.05637,0.211397 0.05637,0.211397 0.07047,0.211397 0.05637,0.197299 0.05637,0.1973 0.05637,0.197309 0.07047,0.197299 0.05637,0.183212 0.05637,0.183211 0.07047,0.183202 0.05637,0.169124 0.05637,0.169113 0.05637,0.155026 0.07047,0.169114 0.05637,0.155026 0.05637,0.140928 0.05637,0.155026 0.07047,0.140928 0.05637,0.12684 0.05637,0.140929 0.07047,0.12684 0.05637,0.12683 0.05637,0.112752 0.05637,0.112743 0.07047,0.112743 0.05637,0.112742 0.05637,0.09865 0.05637,0.09865 0.07047,0.0846 0.05637,0.09865 0.05637,0.0846 0.07047,0.07044 0.05637,0.08451 0.05637,0.07044 0.05637,0.07044 0.07047,0.05637 0.05637,0.07044 0.05637,0.05637 0.05637,0.05637 0.07047,0.0423 0.05637,0.05637 0.05637,0.0423 0.07047,0.0423 0.05637,0.02814 0.05637,0.0423 0.05637,0.02823 0.07047,0.02814 0.05637,0.01407 0.05637,0.02814 0.05637,0.01407 0.07047,0.01407 0.05637,0.01407 0.05637,0.01407 0.07047,0.01407 0.05637,0 0.05637,0.01407 0.05637,0 0.07047,0 0.05637,0 0.05637,-0.01407 0.05637,0 0.07047,-0.01407 0.05637,0 0.05637,-0.01407 0.07047,-0.01407 0.05637,-0.01407 0.05637,-0.01407 0.05637,-0.01407 0.07047,-0.01407 0.05637,-0.02814 0.05637,-0.01407 0.05637,-0.02823 0.07047,-0.01407 0.05637,-0.02823 0.05637,-0.01407 0.07047,-0.02823 0.05637,-0.02814 0.05637,-0.02814 0.05637,-0.01407 0.07047,-0.02814 0.05637,-0.02823 0.05637,-0.02814 0.05637,-0.02814 0.07047,-0.02814 0.05637,-0.02814 0.05637,-0.02814 0.07047,-0.02823 0.05637,-0.02814 0.05637,-0.02814 0.05637,-0.02823 0.07047,-0.02814 0.05637,-0.02814 0.05637,-0.02814 0.05637,-0.02814 0.07047,-0.01407 0.05637,-0.02814 0.05637,-0.02814 0.07047,-0.02823 0.05637,-0.02823 0.05637,-0.02814 0.05637,-0.02814 0.07047,-0.01407 0.05637,-0.02823 0.05637,-0.02814 0.07047,-0.01407 0.05637,-0.02814 0.05637,-0.02814 0.05637,-0.01407 0.07047,-0.02814 0.05637,-0.01407 0.05637,-0.02814 0.05637,-0.01407 0.07047,-0.01407 0.05637,-0.02814 0.05637,-0.01407 0.07047,-0.01407 0.05637,-0.01407 0.05637,-0.02814 0.05637,-0.01407 0.07047,-0.01407 0.05637,-0.01407 0.05637,-0.01407 0.05637,-0.01407 0.07047,-0.01407 0.05637,-0.01407 0.05637,-0.01407 0.07047,0 0.05637,-0.01407 0.05637,-0.01407 0.05637,-0.01407 0.07047,0 0.05637,-0.01407 0.05637,-0.01407 0.05637,0 0.07047,-0.01407 0.05637,-0.01407 0.05637,0 0.07047,-0.01407 0.05637,0 0.05637,0 0.05637,-0.01407 0.07047,0 0.05637,-0.01407 0.05637,0 0.05637,0 0.07047,-0.01407 0.05637,0 0.05637,0 0.07047,0 0.05637,-0.01407 0.05637,0 0.05637,0 0.07047,0 0.05637,-0.01407 0.05637,0 0.05637,0 0.07047,0 0.05637,0 0.05637,0 0.07047,0 0.05637,0 0.05637,0 0.05637,0 0.07047,-0.01407 0.05637,0 0.05637,0 0.05637,0 0.07047,0 0.05637,0 -0.05637,0 -0.07047,0 -0.05637,0 -0.05637,0 -0.05637,0 -0.07047,0 -0.05637,0 -0.05637,0 -0.05637,0 -0.07047,0 -0.05637,0 -0.05637,0 -0.07047,0 -0.05637,0 -0.05637,0 -0.05637,0 -0.07047,0 -0.05637,0 -0.05637,0 -0.05637,0 -0.07047,0 -0.05637,0 -0.05637,0 -0.07047,0 -0.05637,0 -0.05637,0 -0.05637,0 -0.07047,0 -0.05637,0 -0.05637,0 -0.05637,0 -0.07047,0 -0.05637,0 -0.05637,0 -0.07047,0 -0.05637,0 -0.05637,0 -0.05637,0 -0.07047,0 -0.05637,0 -0.05637,0 -0.05637,0 -0.07047,0 -0.05637,0 -0.05637,0 -0.07047,0 -0.05637,0 -0.05637,0 -0.05637,0 -0.07047,0 -0.05637,0 -0.05637,0 -0.05637,0 -0.07047,0 -0.05637,0 -0.05637,0 -0.07047,0 -0.05637,0 -0.05637,0 -0.05637,0 -0.07047,0 -0.05637,0 -0.05637,0 -0.05637,0 -0.07047,0 -0.05637,0 -0.05637,0 -0.07047,0 -0.05637,0 -0.05637,0 -0.05637,0 -0.07047,0 -0.05637,0 -0.05637,0 -0.07047,0 -0.05637,0 -0.05637,0 -0.05637,0 -0.07047,0 -0.05637,0 -0.05637,0 -0.05637,0 -0.07047,0 -0.05637,0 -0.05637,0 -0.07047,0 -0.05637,0 -0.05637,0 -0.05637,0 -0.07047,0 -0.05637,0 -0.05637,0 -0.05637,0 -0.07047,0 -0.05637,0 -0.05637,0 -0.07047,0 -0.05637,0 -0.05637,0 -0.05637,0 -0.07047,0 -0.05637,0 -0.05637,0 -0.05637,0 -0.07047,0 -0.05637,0 -0.05637,0 -0.07047,0 -0.05637,0 -0.05637,0 -0.05637,0 -0.07047,0 -0.05637,0 -0.05637,0 -0.05637,0 -0.07047,0 -0.05637,0 -0.05637,0 -0.07047,0 -0.05637,0 -0.05637,0 -0.05637,0 -0.07047,0 -0.05637,0 -0.05637,0 -0.05637,0 -0.07047,0 -0.05637,0 -0.05637,0 -0.07047,0 -0.05637,0 -0.05637,0 -0.05637,0 -0.07047,0 -0.05637,0 -0.05637,0 -0.05637,0 -0.07047,0 -0.05637,0 -0.05637,0 -0.07047,0 -0.05637,0 -0.05637,0 -0.05637,0 -0.07047,0 -0.05637,0 -0.05637,0 -0.05637,0 -0.07047,0 -0.05637,0 -0.05637,0 -0.07047,0 -0.05637,0 -0.05637,0 -0.05637,0 -0.07047,0 -0.05637,0 -0.05637,0 -0.05637,0 -0.07047,0 -0.05637,0 -0.05637,0 -0.07047,0 -0.05637,0 -0.05637,0 -0.05637,0 -0.07047,0 -0.05637,0 -0.05637,0 -0.05637,0 -0.07047,0 -0.05637,0 -0.05637,0 -0.07047,0 -0.05637,0 -0.05637,0 -0.05637,0 -0.07047,0 -0.05637,0 -0.05637,0 -0.05637,0 -0.07047,0 -0.05637,0 -0.05637,0 -0.07047,0 -0.05637,0 -0.05637,0 -0.05637,0 -0.07047,0 -0.05637,0 -0.05637,0 -0.05637,0 -0.07047,0 -0.05637,0 -0.05637,0 -0.07047,0 -0.05637,0 -0.05637,0 -0.05637,0 -0.07047,0 -0.05637,0 -0.05637,0 -0.07047,0 -0.05637,0 -0.05637,0 -0.05637,0 -0.07047,0 -0.05637,0 -0.05637,0 -0.05637,0 -0.07047,0 -0.05637,0 -0.05637,0 -0.07047,0 -0.05637,0 -0.05637,0 -0.05637,0 -0.07047,0 -0.05637,0 -0.05637,0 -0.05637,0 -0.07047,0 -0.05637,0 -0.05637,0 -0.07047,0 -0.05637,0 -0.05637,0 -0.05637,0 -0.07047,0 -0.05637,0 -0.05637,0 -0.05637,0 -0.07047,0 -0.05637,0 -0.05637,0 -0.07047,0 -0.05637,0 -0.05637,0 -0.05637,0 -0.07047,0 -0.05637,0 -0.05637,0 -0.05637,0 -0.07047,0 -0.05637,0 -0.05637,0 -0.07047,0 -0.05637,0 -0.05637,0 -0.05637,0 -0.07047,0 -0.05637,0 -0.05637,0 -0.05637,0 -0.07047,0 -0.05637,0 -0.05637,0 -0.07047,0 -0.05637,0 -0.05637,0 -0.05637,0 -0.07047,0 -0.05637,0 -0.05637,0 -0.05637,0 -0.07047,0 -0.05637,0 -0.05637,0 -0.07047,0 -0.05637,0 -0.05637,0 -0.05637,0 -0.07047,0 -0.05637,0 -0.05637,0 -0.05637,0 -0.07047,0 -0.05637,0 -0.05637,0 -0.07047,0 -0.05637,0 -0.05637,0 -0.05637,0 -0.07047,0 -0.05637,0 -0.05637,0 -0.05637,0 -0.07047,0 -0.05637,0 -0.05637,0 -0.07047,0 -0.05637,0 -0.05637,0 -0.05637,0 -0.07047,0 -0.05637,0 -0.05637,0 -0.05637,0 -0.07047,0 -0.05637,0 -0.05637,0 -0.07047,0 -0.05637,0 -0.05637,0 -0.05637,0 -0.07047,0 -0.05637,0 -0.05637,0 -0.05637,0 -0.07047,0 -0.05637,0 -0.05637,0 -0.07047,0 -0.05637,0 -0.05637,0 -0.05637,0 -0.07047,0 -0.05637,0 -0.05637,0 -0.05637,0 -0.07047,0 -0.05637,0 -0.05637,0 -0.07047,0 -0.05637,0 -0.05637,0 -0.05637,0 -0.07047,0 -0.05637,0 -0.05637,0 -0.07047,0 -0.05637,0 -0.05637,0 -0.05637,0 -0.07047,0 -0.05637,0 -0.05637,0 -0.05637,0 -0.07047,0 -0.05637,0 -0.05637,0 -0.07047,0 -0.05637,0 -0.05637,0 -0.05637,0 -0.07047,0 -0.05637,0 -0.05637,0 -0.05637,0 -0.07047,0 -0.05637,0 -0.05637,0 -0.07047,0 -0.05637,0 -0.05637,0 -0.056371,0 -0.070469,0 -0.056371,0 -0.056371,0 -0.056371,0 -0.070469,0 -0.056371,0 -0.056371,0 -0.070469,0 -0.056371,0 -0.056371,0 -0.056371,0 -0.070469,0 -0.056371,0 -0.056371,0 -0.056371,0 -0.070469,0 -0.056371,0 -0.056371,0 -0.070469,0 -0.056371,0 -0.056371,0 -0.056371,0 -0.070469,0 -0.056371,0 -0.056371,0 -0.056371,0 -0.070469,0 -0.056371,0 -0.056371,0 -0.070469,0 -0.056371,0 -0.056371,0 -0.056371,0 -0.070469,0 -0.056371,0 -0.056371,0 -0.056371,0 -0.070469,0 -0.056371,0 -0.056371,0 -0.070469,0 -0.056371,0 -0.056371,0 -0.056371,0 -0.070469,0 -0.056371,0 -0.056371,0 -0.056371,0 -0.070469,0 -0.056371,0 -0.056371,0 -0.070469,0 -0.056371,0 -0.056371,0 -0.056371,0 -0.070469,0 -0.056371,0 -0.056371,0 -0.056371,0 -0.070469,0 -0.056371,0 -0.056371,0 -0.070469,0 -0.056371,0 -0.056371,0 -0.056371,0 -0.070469,0 -0.056371,0 -0.056371,0 -0.056371,0 -0.070469,0 -0.056371,0 -0.056371,0 -0.070469,0 -0.056371,0 -0.056371,0 -0.056371,0 -0.070469,0 -0.056371,0 -0.056371,0 -0.056371,0 -0.070469,0 -0.056371,0 -0.056371,0 -0.070469,0 -0.056371,0 -0.056371,0 -0.056371,0 -0.070469,0 -0.056371,0 -0.056371,0 -0.056371,0 -0.070469,0 -0.056371,0 -0.056371,0 -0.070469,0 -0.056371,0 -0.056371,0 -0.056371,0 -0.070469,0 -0.056371,0 -0.056371,0 -0.070469,0 -0.056371,0 -0.056371,0 -0.056371,0 -0.070469,0 -0.056371,0 -0.056371,0 -0.056371,0 -0.070469,0 -0.056371,0 -0.056371,0 -0.070469,0 -0.056371,0 -0.056371,0 -0.056371,0 -0.070469,0 -0.056371,0 -0.056371,0 -0.056371,0 -0.070469,0 -0.056371,0 -0.056371,0 -0.070469,0 -0.056371,0 -0.056371,0 -0.056371,0 -0.070469,0 -0.056371,0 -0.056371,0 -0.056371,0 -0.070469,0 -0.056371,0 -0.056371,0 -0.070469,0 -0.056371,0 -0.056371,0 -0.056371,0 -0.070469,0 -0.056371,0 -0.056371,0 -0.056371,0 -0.070469,0 -0.056371,0 -0.056371,0 -0.070469,0 -0.056371,0 -0.056371,0 -0.0563712,0 -0.0704689,0 -0.0563713,0 -0.0563713,0 -0.0563713,0 -0.0704689,0 -0.0563713,0 0.001445,0" />
  <path
     style="color:#ff0000;fill:none;stroke:#000000;stroke-width:0.1409304;stroke-linecap:butt;stroke-linejoin:miter"
     inkscape:connector-curvature="0"
     id="path275"
     d="m 0.58224095,26.324741 0.0563713,0 0.0704689,0 0.0563713,0 0.0563713,0 0.0563713,0 0.0704689,0.01407 0.0563712,0 0.056371,0 0.056371,0 0.070469,0 0.056371,0 0.056371,0 0.070469,0 0.056371,0 0.056371,0 0.056371,0.01407 0.070469,0 0.056371,0 0.056371,0 0.056371,0.01407 0.070469,0 0.056371,0 0.056371,0 0.070469,0.01407 0.056371,0 0.056371,0 0.056371,0.01407 0.070469,0 0.056371,0.01407 0.056371,0 0.056371,0 0.070469,0.01407 0.056371,0 0.056371,0.01407 0.070469,0.01407 0.056371,0 0.056371,0.01407 0.056371,0.01407 0.070469,0 0.056371,0.01407 0.056371,0.01407 0.056371,0.01407 0.070469,0 0.056371,0.01407 0.056371,0.01407 0.070469,0.01407 0.056371,0.01407 0.056371,0.01407 0.056371,0.01407 0.070469,0.01407 0.056371,0.01407 0.056371,0.02814 0.056371,0.01407 0.070469,0.01407 0.056371,0.01407 0.056371,0.02814 0.070469,0.01407 0.056371,0.01407 0.056371,0.02814 0.056371,0.01407 0.070469,0.02814 0.056371,0.01407 0.056371,0.02814 0.070469,0.02814 0.056371,0.01407 0.056371,0.02814 0.056371,0.02823 0.070469,0.01407 0.056371,0.02814 0.056371,0.02814 0.056371,0.02823 0.070469,0.02823 0.056371,0.02814 0.056371,0.02814 0.070469,0.01407 0.056371,0.02814 0.056371,0.02814 0.056371,0.02814 0.070469,0.02814 0.056371,0.02823 0.056371,0.02814 0.056371,0.02814 0.070469,0.02823 0.056371,0.02814 0.056371,0.02814 0.070469,0.02814 0.056371,0.02814 0.056371,0.02814 0.056371,0.02823 0.070469,0.02814 0.056371,0.01407 0.056371,0.02814 0.056371,0.02814 0.070469,0.02823 0.056371,0.01407 0.056371,0.02823 0.070469,0.01407 0.056371,0.02823 0.056371,0.01407 0.056371,0.02814 0.070469,0.01407 0.056371,0.01407 0.056371,0.01407 0.056371,0.01407 0.070469,0.01407 0.056371,0.01407 0.056371,0 0.070469,0.01407 0.056371,0 0.056371,0.01407 0.056371,0 0.070469,0 0.056371,0 0.056371,-0.01407 0.056371,0 0.070469,-0.01407 0.056371,-0.01407 0.056371,-0.01407 0.070469,-0.01407 0.056371,-0.01407 0.056371,-0.02814 0.056371,-0.01407 0.070469,-0.02814 0.056371,-0.02823 0.056371,-0.0423 0.056371,-0.02814 0.070469,-0.0423 0.056371,-0.0423 0.056371,-0.05637 0.070469,-0.0423 0.056371,-0.05637 0.056371,-0.05637 0.056371,-0.07044 0.070469,-0.05637 0.056371,-0.07044 0.056371,-0.07044 0.056371,-0.08451 0.070469,-0.07044 0.056371,-0.0846 0.056371,-0.09865 0.070469,-0.0846 0.056371,-0.09865 0.056371,-0.09865 0.056371,-0.112742 0.070469,-0.112743 0.056371,-0.112743 0.056371,-0.112752 0.056371,-0.12683 0.070469,-0.12684 0.056371,-0.140929 0.056371,-0.12684 0.070469,-0.140928 0.056371,-0.155026 0.056371,-0.140928 0.056371,-0.155026 0.070469,-0.169114 0.056371,-0.155026 0.05637,-0.169113 0.05637,-0.169124 0.07047,-0.183202 0.05637,-0.183211 0.05637,-0.183212 0.07047,-0.197299 0.05637,-0.197309 0.05637,-0.1973 0.05637,-0.197299 0.07047,-0.211397 0.05637,-0.211397 0.05637,-0.211397 0.05637,-0.225485 0.07047,-0.225486 0.05637,-0.225494 0.05637,-0.225485 0.07047,-0.239583 0.05637,-0.239583 0.05637,-0.239583 0.05637,-0.239582 0.07047,-0.253671 0.05637,-0.25368 0.05637,-0.253671 0.05637,-0.253671 0.07047,-0.267768 0.05637,-0.253681 0.05637,-0.267768 0.07047,-0.267768 0.05637,-0.281857 0.05637,-0.267768 0.05637,-0.267768 0.07047,-0.281857 0.05637,-0.281866 0.05637,-0.267768 0.07047,-0.281857 0.05637,-0.281866 0.05637,-0.281856 0.05637,-0.281866 0.07047,-0.281856 0.05637,-0.295954 0.05637,-0.281866 0.05637,-0.281857 0.07047,-0.281856 0.05637,-0.281866 0.05637,-0.281856 0.07047,-0.295954 0.05637,-0.281866 0.05637,-0.267769 0.05637,-0.281856 0.07047,-0.281866 0.05637,-0.281857 0.05637,-0.267768 0.05637,-0.267768 0.07047,-0.281857 0.05637,-0.267768 0.05637,-0.25368 0.07047,-0.267769 0.05637,-0.253671 0.05637,-0.267768 0.05637,-0.2536707 0.07047,-0.2395827 0.05637,-0.2536804 0.05637,-0.2395827 0.05637,-0.2395828 0.07047,-0.225485 0.05637,-0.2254851 0.05637,-0.2254948 0.07047,-0.2254851 0.05637,-0.2113971 0.05637,-0.2113971 0.05637,-0.1972994 0.07047,-0.1972995 0.05637,-0.1832115 0.05637,-0.1972994 0.05637,-0.1691235 0.07047,-0.1832114 0.05637,-0.1691139 0.05637,-0.1550258 0.07047,-0.1550162 0.05637,-0.1409378 0.05637,-0.1409282 0.05637,-0.1409282 0.07047,-0.1268401 0.05637,-0.1127426 0.05637,-0.1127425 0.05637,-0.1127426 0.07047,-0.098654 0.05637,-0.084605 0.05637,-0.084509 0.07047,-0.07044 0.05637,-0.07044 0.05637,-0.056371 0.05637,-0.056371 0.07047,-0.042303 0.05637,-0.028137 0.05637,-0.028137 0.05637,-0.028137 0.07047,-0.014069 0.05637,0 0.05637,0 0.07047,0.014069 0.05637,0.028137 0.05637,0.028137 0.05637,0.028137 0.07047,0.042303 0.05637,0.056371 0.05637,0.056371 0.05637,0.07044 0.07047,0.07044 0.05637,0.084509 0.05637,0.084605 0.07047,0.098654 0.05637,0.1127426 0.05637,0.1127425 0.05637,0.1127426 0.07047,0.1268401 0.05637,0.1409282 0.05637,0.1409282 0.05637,0.1409378 0.07047,0.1550162 0.05637,0.1550258 0.05637,0.1691139 0.07047,0.1832114 0.05637,0.1691235 0.05637,0.1972994 0.05637,0.1832115 0.07047,0.1972995 0.05637,0.1972994 0.05637,0.2113971 0.05637,0.2113971 0.07047,0.2254851 0.05637,0.2254948 0.05637,0.2254851 0.07047,0.225485 0.05637,0.2395828 0.05637,0.2395827 0.05637,0.2536804 0.07047,0.2395827 0.05637,0.2536707 0.05637,0.267768 0.05637,0.253671 0.07047,0.267769 0.05637,0.25368 0.05637,0.267768 0.07047,0.281857 0.05637,0.267768 0.05637,0.267768 0.05637,0.281857 0.07047,0.281866 0.05637,0.281856 0.05637,0.267769 0.05637,0.281866 0.07047,0.295954 0.05637,0.281856 0.05637,0.281866 0.07047,0.281856 0.05637,0.281857 0.05637,0.281866 0.05637,0.295954 0.07047,0.281856 0.05637,0.281866 0.05637,0.281856 0.07047,0.281866 0.05637,0.281857 0.05637,0.267768 0.05637,0.281866 0.07047,0.281857 0.05637,0.267768 0.05637,0.267768 0.05637,0.281857 0.07047,0.267768 0.05637,0.267768 0.05637,0.253681 0.07047,0.267768 0.05637,0.253671 0.05637,0.253671 0.05637,0.25368 0.07047,0.253671 0.05637,0.239582 0.05637,0.239583 0.05637,0.239583 0.07047,0.239583 0.05637,0.225485 0.05637,0.225494 0.07047,0.225486 0.05637,0.225485 0.05637,0.211397 0.05637,0.211397 0.07047,0.211397 0.05637,0.197299 0.05637,0.1973 0.05637,0.197309 0.07047,0.197299 0.05637,0.183212 0.05637,0.183211 0.07047,0.183202 0.05637,0.169124 0.05637,0.169113 0.05637,0.155026 0.07047,0.169114 0.05637,0.155026 0.05637,0.140928 0.05637,0.155026 0.07047,0.140928 0.05637,0.12684 0.05637,0.140929 0.07047,0.12684 0.05637,0.12683 0.05637,0.112752 0.05637,0.112743 0.07047,0.112743 0.05637,0.112742 0.05637,0.09865 0.05637,0.09865 0.07047,0.0846 0.05637,0.09865 0.05637,0.0846 0.07047,0.07044 0.05637,0.08451 0.05637,0.07044 0.05637,0.07044 0.07047,0.05637 0.05637,0.07044 0.05637,0.05637 0.05637,0.05637 0.07047,0.0423 0.05637,0.05637 0.05637,0.0423 0.07047,0.0423 0.05637,0.02814 0.05637,0.0423 0.05637,0.02823 0.07047,0.02814 0.05637,0.01407 0.05637,0.02814 0.05637,0.01407 0.07047,0.01407 0.05637,0.01407 0.05637,0.01407 0.07047,0.01407 0.05637,0 0.05637,0.01407 0.05637,0 0.07047,0 0.05637,0 0.05637,-0.01407 0.05637,0 0.07047,-0.01407 0.05637,0 0.05637,-0.01407 0.07047,-0.01407 0.05637,-0.01407 0.05637,-0.01407 0.05637,-0.01407 0.07047,-0.01407 0.05637,-0.02814 0.05637,-0.01407 0.05637,-0.02823 0.07047,-0.01407 0.05637,-0.02823 0.05637,-0.01407 0.07047,-0.02823 0.05637,-0.02814 0.05637,-0.02814 0.05637,-0.01407 0.07047,-0.02814 0.05637,-0.02823 0.05637,-0.02814 0.05637,-0.02814 0.07047,-0.02814 0.05637,-0.02814 0.05637,-0.02814 0.07047,-0.02823 0.05637,-0.02814 0.05637,-0.02814 0.05637,-0.02823 0.07047,-0.02814 0.05637,-0.02814 0.05637,-0.02814 0.05637,-0.02814 0.07047,-0.01407 0.05637,-0.02814 0.05637,-0.02814 0.07047,-0.02823 0.05637,-0.02823 0.05637,-0.02814 0.05637,-0.02814 0.07047,-0.01407 0.05637,-0.02823 0.05637,-0.02814 0.07047,-0.01407 0.05637,-0.02814 0.05637,-0.02814 0.05637,-0.01407 0.07047,-0.02814 0.05637,-0.01407 0.05637,-0.02814 0.05637,-0.01407 0.07047,-0.01407 0.05637,-0.02814 0.05637,-0.01407 0.07047,-0.01407 0.05637,-0.01407 0.05637,-0.02814 0.05637,-0.01407 0.07047,-0.01407 0.05637,-0.01407 0.05637,-0.01407 0.05637,-0.01407 0.07047,-0.01407 0.05637,-0.01407 0.05637,-0.01407 0.07047,0 0.05637,-0.01407 0.05637,-0.01407 0.05637,-0.01407 0.07047,0 0.05637,-0.01407 0.05637,-0.01407 0.05637,0 0.07047,-0.01407 0.05637,-0.01407 0.05637,0 0.07047,-0.01407 0.05637,0 0.05637,0 0.05637,-0.01407 0.07047,0 0.05637,-0.01407 0.05637,0 0.05637,0 0.07047,-0.01407 0.05637,0 0.05637,0 0.07047,0 0.05637,-0.01407 0.05637,0 0.05637,0 0.07047,0 0.05637,-0.01407 0.05637,0 0.05637,0 0.07047,0 0.05637,0 0.05637,0 0.07047,0 0.05637,0 0.05637,0 0.05637,0 0.07047,-0.01407 0.05637,0 0.05637,0 0.05637,0 0.07047,0 0.05637,0 -0.05637,0 -0.07047,0 -0.05637,0 -0.05637,0 -0.05637,0 -0.07047,0 -0.05637,0 -0.05637,0 -0.05637,0 -0.07047,0 -0.05637,0 -0.05637,0 -0.07047,0 -0.05637,0 -0.05637,0 -0.05637,0 -0.07047,0 -0.05637,0 -0.05637,0 -0.05637,0 -0.07047,0 -0.05637,0 -0.05637,0 -0.07047,0 -0.05637,0 -0.05637,0 -0.05637,0 -0.07047,0 -0.05637,0 -0.05637,0 -0.05637,0 -0.07047,0 -0.05637,0 -0.05637,0 -0.07047,0 -0.05637,0 -0.05637,0 -0.05637,0 -0.07047,0 -0.05637,0 -0.05637,0 -0.05637,0 -0.07047,0 -0.05637,0 -0.05637,0 -0.07047,0 -0.05637,0 -0.05637,0 -0.05637,0 -0.07047,0 -0.05637,0 -0.05637,0 -0.05637,0 -0.07047,0 -0.05637,0 -0.05637,0 -0.07047,0 -0.05637,0 -0.05637,0 -0.05637,0 -0.07047,0 -0.05637,0 -0.05637,0 -0.05637,0 -0.07047,0 -0.05637,0 -0.05637,0 -0.07047,0 -0.05637,0 -0.05637,0 -0.05637,0 -0.07047,0 -0.05637,0 -0.05637,0 -0.07047,0 -0.05637,0 -0.05637,0 -0.05637,0 -0.07047,0 -0.05637,0 -0.05637,0 -0.05637,0 -0.07047,0 -0.05637,0 -0.05637,0 -0.07047,0 -0.05637,0 -0.05637,0 -0.05637,0 -0.07047,0 -0.05637,0 -0.05637,0 -0.05637,0 -0.07047,0 -0.05637,0 -0.05637,0 -0.07047,0 -0.05637,0 -0.05637,0 -0.05637,0 -0.07047,0 -0.05637,0 -0.05637,0 -0.05637,0 -0.07047,0 -0.05637,0 -0.05637,0 -0.07047,0 -0.05637,0 -0.05637,0 -0.05637,0 -0.07047,0 -0.05637,0 -0.05637,0 -0.05637,0 -0.07047,0 -0.05637,0 -0.05637,0 -0.07047,0 -0.05637,0 -0.05637,0 -0.05637,0 -0.07047,0 -0.05637,0 -0.05637,0 -0.05637,0 -0.07047,0 -0.05637,0 -0.05637,0 -0.07047,0 -0.05637,0 -0.05637,0 -0.05637,0 -0.07047,0 -0.05637,0 -0.05637,0 -0.05637,0 -0.07047,0 -0.05637,0 -0.05637,0 -0.07047,0 -0.05637,0 -0.05637,0 -0.05637,0 -0.07047,0 -0.05637,0 -0.05637,0 -0.05637,0 -0.07047,0 -0.05637,0 -0.05637,0 -0.07047,0 -0.05637,0 -0.05637,0 -0.05637,0 -0.07047,0 -0.05637,0 -0.05637,0 -0.05637,0 -0.07047,0 -0.05637,0 -0.05637,0 -0.07047,0 -0.05637,0 -0.05637,0 -0.05637,0 -0.07047,0 -0.05637,0 -0.05637,0 -0.05637,0 -0.07047,0 -0.05637,0 -0.05637,0 -0.07047,0 -0.05637,0 -0.05637,0 -0.05637,0 -0.07047,0 -0.05637,0 -0.05637,0 -0.05637,0 -0.07047,0 -0.05637,0 -0.05637,0 -0.07047,0 -0.05637,0 -0.05637,0 -0.05637,0 -0.07047,0 -0.05637,0 -0.05637,0 -0.05637,0 -0.07047,0 -0.05637,0 -0.05637,0 -0.07047,0 -0.05637,0 -0.05637,0 -0.05637,0 -0.07047,0 -0.05637,0 -0.05637,0 -0.07047,0 -0.05637,0 -0.05637,0 -0.05637,0 -0.07047,0 -0.05637,0 -0.05637,0 -0.05637,0 -0.07047,0 -0.05637,0 -0.05637,0 -0.07047,0 -0.05637,0 -0.05637,0 -0.05637,0 -0.07047,0 -0.05637,0 -0.05637,0 -0.05637,0 -0.07047,0 -0.05637,0 -0.05637,0 -0.07047,0 -0.05637,0 -0.05637,0 -0.05637,0 -0.07047,0 -0.05637,0 -0.05637,0 -0.05637,0 -0.07047,0 -0.05637,0 -0.05637,0 -0.07047,0 -0.05637,0 -0.05637,0 -0.05637,0 -0.07047,0 -0.05637,0 -0.05637,0 -0.05637,0 -0.07047,0 -0.05637,0 -0.05637,0 -0.07047,0 -0.05637,0 -0.05637,0 -0.05637,0 -0.07047,0 -0.05637,0 -0.05637,0 -0.05637,0 -0.07047,0 -0.05637,0 -0.05637,0 -0.07047,0 -0.05637,0 -0.05637,0 -0.05637,0 -0.07047,0 -0.05637,0 -0.05637,0 -0.05637,0 -0.07047,0 -0.05637,0 -0.05637,0 -0.07047,0 -0.05637,0 -0.05637,0 -0.05637,0 -0.07047,0 -0.05637,0 -0.05637,0 -0.05637,0 -0.07047,0 -0.05637,0 -0.05637,0 -0.07047,0 -0.05637,0 -0.05637,0 -0.05637,0 -0.07047,0 -0.05637,0 -0.05637,0 -0.05637,0 -0.07047,0 -0.05637,0 -0.05637,0 -0.07047,0 -0.05637,0 -0.05637,0 -0.05637,0 -0.07047,0 -0.05637,0 -0.05637,0 -0.05637,0 -0.07047,0 -0.05637,0 -0.05637,0 -0.07047,0 -0.05637,0 -0.05637,0 -0.05637,0 -0.07047,0 -0.05637,0 -0.05637,0 -0.05637,0 -0.07047,0 -0.05637,0 -0.05637,0 -0.07047,0 -0.05637,0 -0.05637,0 -0.05637,0 -0.07047,0 -0.05637,0 -0.05637,0 -0.05637,0 -0.07047,0 -0.05637,0 -0.05637,0 -0.07047,0 -0.05637,0 -0.05637,0 -0.05637,0 -0.07047,0 -0.05637,0 -0.05637,0 -0.07047,0 -0.05637,0 -0.05637,0 -0.05637,0 -0.07047,0 -0.05637,0 -0.05637,0 -0.05637,0 -0.07047,0 -0.05637,0 -0.05637,0 -0.07047,0 -0.05637,0 -0.05637,0 -0.05637,0 -0.07047,0 -0.05637,0 -0.05637,0 -0.05637,0 -0.07047,0 -0.05637,0 -0.05637,0 -0.07047,0 -0.05637,0 -0.05637,0 -0.056371,0 -0.070469,0 -0.056371,0 -0.056371,0 -0.056371,0 -0.070469,0 -0.056371,0 -0.056371,0 -0.070469,0 -0.056371,0 -0.056371,0 -0.056371,0 -0.070469,0 -0.056371,0 -0.056371,0 -0.056371,0 -0.070469,0 -0.056371,0 -0.056371,0 -0.070469,0 -0.056371,0 -0.056371,0 -0.056371,0 -0.070469,0 -0.056371,0 -0.056371,0 -0.056371,0 -0.070469,0 -0.056371,0 -0.056371,0 -0.070469,0 -0.056371,0 -0.056371,0 -0.056371,0 -0.070469,0 -0.056371,0 -0.056371,0 -0.056371,0 -0.070469,0 -0.056371,0 -0.056371,0 -0.070469,0 -0.056371,0 -0.056371,0 -0.056371,0 -0.070469,0 -0.056371,0 -0.056371,0 -0.056371,0 -0.070469,0 -0.056371,0 -0.056371,0 -0.070469,0 -0.056371,0 -0.056371,0 -0.056371,0 -0.070469,0 -0.056371,0 -0.056371,0 -0.056371,0 -0.070469,0 -0.056371,0 -0.056371,0 -0.070469,0 -0.056371,0 -0.056371,0 -0.056371,0 -0.070469,0 -0.056371,0 -0.056371,0 -0.056371,0 -0.070469,0 -0.056371,0 -0.056371,0 -0.070469,0 -0.056371,0 -0.056371,0 -0.056371,0 -0.070469,0 -0.056371,0 -0.056371,0 -0.056371,0 -0.070469,0 -0.056371,0 -0.056371,0 -0.070469,0 -0.056371,0 -0.056371,0 -0.056371,0 -0.070469,0 -0.056371,0 -0.056371,0 -0.056371,0 -0.070469,0 -0.056371,0 -0.056371,0 -0.070469,0 -0.056371,0 -0.056371,0 -0.056371,0 -0.070469,0 -0.056371,0 -0.056371,0 -0.070469,0 -0.056371,0 -0.056371,0 -0.056371,0 -0.070469,0 -0.056371,0 -0.056371,0 -0.056371,0 -0.070469,0 -0.056371,0 -0.056371,0 -0.070469,0 -0.056371,0 -0.056371,0 -0.056371,0 -0.070469,0 -0.056371,0 -0.056371,0 -0.056371,0 -0.070469,0 -0.056371,0 -0.056371,0 -0.070469,0 -0.056371,0 -0.056371,0 -0.056371,0 -0.070469,0 -0.056371,0 -0.056371,0 -0.056371,0 -0.070469,0 -0.056371,0 -0.056371,0 -0.070469,0 -0.056371,0 -0.056371,0 -0.056371,0 -0.070469,0 -0.056371,0 -0.056371,0 -0.056371,0 -0.070469,0 -0.056371,0 -0.056371,0 -0.070469,0 -0.056371,0 -0.056371,0 -0.0563712,0 -0.0704689,0 -0.0563713,0 -0.0563713,0 -0.0563713,0 -0.0704689,0 -0.0563713,0 0.001445,0" />
</svg>
